Analysis – MA [46]15 Group 11 Final Project
…
# A tibble: 30 × 5
   st_abbrev avg_total_mentalhealth psychol_21 socwk_21 conslrs_21
   <chr>                      <dbl>      <dbl>    <dbl>      <dbl>
 1 AK                          5.88        633     1109       1572
 2 AL                          5.91       1164     6668       4974
 3 AR                          6.24        762     3042       2797
 4 AZ                          5.85       4619     9778       7404
 5 CT                          5.90       4719     7916       4784
 6 DE                          5.74        729     1913       1899
 7 HI                          5.72       1056     2001       1716
 8 IA                          5.86       1189     4265       4400
 9 ID                          5.94        916     2288       3023
10 IN                          6.11       2262    10946       7163
# ℹ 20 more rows
…
